0,0
0.017033288,59.47368421
0.037369411,74.73684211
0.077048861,85.52631579
0.116897022,89.47368421
0.156793849,91.44736842
0.196703653,92.89473684
0.236626436,93.81578947
0.359389397,95.13157895
0.479219389,95.39473684
0.599052625,95.52631579
0.800262799,95.39473684
1,95