<mxfile host="app.diagrams.net" modified="2023-06-19T14:33:02.994Z" agent="Mozilla/5.0 (Macintosh; Intel Mac OS X 10_15_7) AppleWebKit/537.36 (KHTML, like Gecko) Chrome/114.0.0.0 Safari/537.36 Edg/114.0.1823.51" etag="NXbcX5DqL-RHoxOwy2JT" version="21.4.0" type="device">
  <diagram name="Page-1" id="c7558073-3199-34d8-9f00-42111426c3f3">
    <mxGraphModel dx="1139" dy="682" grid="1" gridSize="10" guides="1" tooltips="1" connect="1" arrows="1" fold="1" page="1" pageScale="1" pageWidth="826" pageHeight="1169" background="none" math="0" shadow="0">
      <root>
        <mxCell id="0" />
        <mxCell id="1" parent="0" />
        <mxCell id="2" value="&lt;p style=&quot;margin: 4px 0px 0px; text-align: center; text-decoration: underline; line-height: 120%;&quot;&gt;&lt;strong&gt;Step 2&lt;/strong&gt;&lt;/p&gt;&lt;hr&gt;&lt;span style=&quot;background-color: initial; text-align: left;&quot;&gt;Either download the profiles,&lt;br&gt;&lt;/span&gt;Or use your own profiles&lt;br&gt;&lt;p&gt;&lt;/p&gt;&lt;p style=&quot;margin: 0px; margin-left: 8px;&quot;&gt;&lt;br&gt;&lt;/p&gt;" style="verticalAlign=middle;align=center;overflow=fill;fontSize=12;fontFamily=Helvetica;html=1;rounded=1;fontStyle=1;strokeWidth=3;fillColor=#dae8fc;strokeColor=#6c8ebf;" parent="1" vertex="1">
          <mxGeometry x="228.25" y="261" width="178.75" height="74.5" as="geometry" />
        </mxCell>
        <mxCell id="0xibBM71C3-ngfZajD-j-103" style="edgeStyle=orthogonalEdgeStyle;rounded=0;orthogonalLoop=1;jettySize=auto;html=1;exitX=0.5;exitY=1;exitDx=0;exitDy=0;entryX=0.5;entryY=0;entryDx=0;entryDy=0;strokeWidth=2;strokeColor=#990000;" parent="1" source="3" target="QtLiS_kp1Oo6397CYs3Z-97" edge="1">
          <mxGeometry relative="1" as="geometry" />
        </mxCell>
        <mxCell id="3" value="User" style="whiteSpace=wrap;align=center;verticalAlign=middle;fontStyle=1;strokeWidth=3;fillColor=#FFFFCC" parent="1" vertex="1">
          <mxGeometry x="270" y="37" width="90" height="30" as="geometry" />
        </mxCell>
        <mxCell id="4" value="Host for Files" style="whiteSpace=wrap;align=center;verticalAlign=middle;fontStyle=1;strokeWidth=3;fillColor=#FFFFCC" parent="1" vertex="1">
          <mxGeometry x="488" y="266" width="90" height="60" as="geometry" />
        </mxCell>
        <mxCell id="t6xll0wlhaVS0jq_x6gm-113" style="edgeStyle=orthogonalEdgeStyle;rounded=0;orthogonalLoop=1;jettySize=auto;html=1;exitX=1;exitY=0;exitDx=0;exitDy=0;entryX=0;entryY=0.25;entryDx=0;entryDy=0;strokeWidth=2;strokeColor=#990000;" parent="1" source="5" target="t6xll0wlhaVS0jq_x6gm-110" edge="1">
          <mxGeometry relative="1" as="geometry">
            <Array as="points">
              <mxPoint x="630" y="342" />
              <mxPoint x="660" y="342" />
            </Array>
          </mxGeometry>
        </mxCell>
        <mxCell id="t6xll0wlhaVS0jq_x6gm-116" style="edgeStyle=orthogonalEdgeStyle;rounded=0;orthogonalLoop=1;jettySize=auto;html=1;exitX=1;exitY=0.75;exitDx=0;exitDy=0;entryX=0;entryY=0.25;entryDx=0;entryDy=0;strokeWidth=2;strokeColor=#990000;" parent="1" source="5" target="t6xll0wlhaVS0jq_x6gm-115" edge="1">
          <mxGeometry relative="1" as="geometry">
            <Array as="points">
              <mxPoint x="710" y="420" />
            </Array>
          </mxGeometry>
        </mxCell>
        <mxCell id="5" value="Energy System Network (ESN)" style="shape=process;whiteSpace=wrap;align=center;verticalAlign=middle;size=0.0475;fontStyle=1;strokeWidth=3;fillColor=#ffe6cc;strokeColor=#d79b00;" parent="1" vertex="1">
          <mxGeometry x="25" y="360" width="605" height="80" as="geometry" />
        </mxCell>
        <mxCell id="9" value="&lt;p style=&quot;margin: 0px; margin-top: 4px; text-align: center; text-decoration: underline;&quot;&gt;&lt;strong&gt;&lt;strong&gt;Step&lt;/strong&gt;&amp;nbsp;5&lt;br&gt;&lt;/strong&gt;&lt;/p&gt;&lt;hr&gt;&lt;p style=&quot;margin: 0px; margin-left: 8px;&quot;&gt;Create energy&lt;/p&gt;&lt;p style=&quot;margin: 0px; margin-left: 8px;&quot;&gt;network&lt;/p&gt;" style="verticalAlign=middle;align=center;overflow=fill;fontSize=12;fontFamily=Helvetica;html=1;rounded=1;fontStyle=1;strokeWidth=3;fillColor=#E6FFCC" parent="1" vertex="1">
          <mxGeometry x="505" y="508" width="110" height="70" as="geometry" />
        </mxCell>
        <mxCell id="10" value="&lt;p style=&quot;margin: 0px; margin-top: 4px; text-align: center; text-decoration: underline;&quot;&gt;&lt;strong&gt;Step 3&lt;br&gt;&lt;/strong&gt;&lt;/p&gt;&lt;hr&gt;&lt;p style=&quot;margin: 0px; margin-left: 8px;&quot;&gt;Construct&lt;/p&gt;&lt;p style=&quot;margin: 0px; margin-left: 8px;&quot;&gt;the components&lt;/p&gt;" style="verticalAlign=middle;align=center;overflow=fill;fontSize=12;fontFamily=Helvetica;html=1;rounded=1;fontStyle=1;strokeWidth=3;fillColor=#E6FFCC" parent="1" vertex="1">
          <mxGeometry x="40" y="510" width="110" height="70" as="geometry" />
        </mxCell>
        <mxCell id="37" value="" style="edgeStyle=none;noEdgeStyle=1;strokeColor=#990000;strokeWidth=2;exitX=-0.011;exitY=0.65;exitDx=0;exitDy=0;exitPerimeter=0;" parent="1" edge="1">
          <mxGeometry width="100" height="100" relative="1" as="geometry">
            <mxPoint x="492.01" y="315" as="sourcePoint" />
            <mxPoint x="410" y="315" as="targetPoint" />
            <Array as="points" />
          </mxGeometry>
        </mxCell>
        <mxCell id="11" value="&lt;p style=&quot;margin: 0px; margin-top: 4px; text-align: center; text-decoration: underline;&quot;&gt;&lt;strong&gt;&lt;strong&gt;Step&lt;/strong&gt; 4&lt;br&gt;&lt;/strong&gt;&lt;/p&gt;&lt;hr&gt;&lt;p style=&quot;margin: 0px; margin-left: 8px;&quot;&gt;Create energy&lt;/p&gt;&lt;p style=&quot;margin: 0px; margin-left: 8px;&quot;&gt;systems&lt;/p&gt;" style="verticalAlign=middle;align=center;overflow=fill;fontSize=12;fontFamily=Helvetica;html=1;rounded=1;fontStyle=1;strokeWidth=3;fillColor=#E6FFCC" parent="1" vertex="1">
          <mxGeometry x="261" y="510" width="110" height="70" as="geometry" />
        </mxCell>
        <mxCell id="53" value="Configuration&#xa;files" style="text;spacingTop=-5;align=center" parent="1" vertex="1">
          <mxGeometry x="210" y="224" width="128.5" height="20" as="geometry" />
        </mxCell>
        <mxCell id="56" value="" style="edgeStyle=elbowEdgeStyle;elbow=horizontal;strokeColor=#990000;strokeWidth=2" parent="1" source="2" target="5" edge="1">
          <mxGeometry width="100" height="100" relative="1" as="geometry">
            <mxPoint x="-35" y="500" as="sourcePoint" />
            <mxPoint x="65" y="400" as="targetPoint" />
            <Array as="points" />
          </mxGeometry>
        </mxCell>
        <mxCell id="57" value="Input Data" style="text;spacingTop=-5;align=center" parent="1" vertex="1">
          <mxGeometry x="239" y="336" width="30" height="20" as="geometry" />
        </mxCell>
        <mxCell id="76" value="" style="edgeStyle=elbowEdgeStyle;elbow=horizontal;strokeColor=#990000;strokeWidth=2" parent="1" edge="1">
          <mxGeometry width="100" height="100" relative="1" as="geometry">
            <mxPoint x="580" y="510" as="sourcePoint" />
            <mxPoint x="580" y="441" as="targetPoint" />
            <Array as="points">
              <mxPoint x="580" y="470" />
            </Array>
          </mxGeometry>
        </mxCell>
        <mxCell id="77" value="" style="edgeStyle=elbowEdgeStyle;elbow=horizontal;strokeColor=#990000;strokeWidth=2" parent="1" edge="1">
          <mxGeometry width="100" height="100" relative="1" as="geometry">
            <mxPoint x="550" y="441" as="sourcePoint" />
            <mxPoint x="550" y="510" as="targetPoint" />
            <Array as="points">
              <mxPoint x="550" y="480" />
            </Array>
          </mxGeometry>
        </mxCell>
        <mxCell id="88" value="" style="edgeStyle=elbowEdgeStyle;elbow=horizontal;strokeColor=#990000;strokeWidth=2" parent="1" edge="1">
          <mxGeometry width="100" height="100" relative="1" as="geometry">
            <mxPoint x="300" y="441" as="sourcePoint" />
            <mxPoint x="300" y="510" as="targetPoint" />
            <Array as="points">
              <mxPoint x="300" y="470" />
            </Array>
          </mxGeometry>
        </mxCell>
        <mxCell id="89" value="" style="edgeStyle=elbowEdgeStyle;elbow=horizontal;strokeColor=#990000;strokeWidth=2" parent="1" edge="1">
          <mxGeometry width="100" height="100" relative="1" as="geometry">
            <mxPoint x="329.5" y="510" as="sourcePoint" />
            <mxPoint x="329.5" y="441" as="targetPoint" />
            <Array as="points">
              <mxPoint x="329.5" y="470" />
            </Array>
          </mxGeometry>
        </mxCell>
        <mxCell id="90" value="Components" style="text;spacingTop=-5;align=center" parent="1" vertex="1">
          <mxGeometry x="136" y="469" width="30" height="20" as="geometry" />
        </mxCell>
        <mxCell id="91" value="Components&#xa;Configuration" style="text;spacingTop=-5;align=center" parent="1" vertex="1">
          <mxGeometry x="25" y="461.0000000000002" width="30" height="20" as="geometry" />
        </mxCell>
        <mxCell id="92" value="" style="edgeStyle=elbowEdgeStyle;elbow=horizontal;strokeColor=#990000;strokeWidth=2" parent="1" edge="1">
          <mxGeometry width="100" height="100" relative="1" as="geometry">
            <mxPoint x="110" y="510" as="sourcePoint" />
            <mxPoint x="110" y="441" as="targetPoint" />
            <Array as="points">
              <mxPoint x="110" y="470" />
            </Array>
          </mxGeometry>
        </mxCell>
        <mxCell id="93" value="" style="edgeStyle=elbowEdgeStyle;elbow=horizontal;strokeColor=#990000;strokeWidth=2" parent="1" edge="1">
          <mxGeometry width="100" height="100" relative="1" as="geometry">
            <mxPoint x="80" y="442.5" as="sourcePoint" />
            <mxPoint x="80" y="511.5" as="targetPoint" />
            <Array as="points">
              <mxPoint x="80" y="481.5" />
            </Array>
          </mxGeometry>
        </mxCell>
        <mxCell id="95" value="Energy Systems" style="text;spacingTop=-5;align=center" parent="1" vertex="1">
          <mxGeometry x="366.49999999999994" y="469.0000000000002" width="30" height="20" as="geometry" />
        </mxCell>
        <mxCell id="96" value="System&#xa;Configuration&#xa;and&#xa;Components" style="text;spacingTop=-5;align=center" parent="1" vertex="1">
          <mxGeometry x="242.99999999999977" y="448" width="30" height="20" as="geometry" />
        </mxCell>
        <mxCell id="t6xll0wlhaVS0jq_x6gm-100" value="If download,&#xa;configuration" style="text;spacingTop=-5;align=center" parent="1" vertex="1">
          <mxGeometry x="429" y="264" width="30" height="19" as="geometry" />
        </mxCell>
        <mxCell id="t6xll0wlhaVS0jq_x6gm-101" value=".csv Files" style="text;spacingTop=-5;align=center" parent="1" vertex="1">
          <mxGeometry x="428" y="316" width="30" height="20" as="geometry" />
        </mxCell>
        <mxCell id="t6xll0wlhaVS0jq_x6gm-105" value="Network&#xa;Configuration&#xa;and&#xa;Energy Systems" style="text;spacingTop=-5;align=center" parent="1" vertex="1">
          <mxGeometry x="484.9999999999998" y="447" width="30" height="20" as="geometry" />
        </mxCell>
        <mxCell id="t6xll0wlhaVS0jq_x6gm-109" value="Network" style="text;spacingTop=-5;align=center" parent="1" vertex="1">
          <mxGeometry x="590" y="469.0000000000002" width="30" height="20" as="geometry" />
        </mxCell>
        <mxCell id="t6xll0wlhaVS0jq_x6gm-114" style="edgeStyle=orthogonalEdgeStyle;rounded=0;orthogonalLoop=1;jettySize=auto;html=1;exitX=0;exitY=1;exitDx=0;exitDy=0;entryX=1;entryY=0.25;entryDx=0;entryDy=0;strokeWidth=2;strokeColor=#990000;" parent="1" source="t6xll0wlhaVS0jq_x6gm-110" target="5" edge="1">
          <mxGeometry relative="1" as="geometry">
            <Array as="points">
              <mxPoint x="710" y="380" />
            </Array>
          </mxGeometry>
        </mxCell>
        <mxCell id="t6xll0wlhaVS0jq_x6gm-110" value="&lt;p style=&quot;margin: 0px; margin-top: 4px; text-align: center; text-decoration: underline;&quot;&gt;&lt;strong&gt;&lt;strong&gt;Step&lt;/strong&gt;&amp;nbsp;6&lt;br&gt;&lt;/strong&gt;&lt;/p&gt;&lt;hr&gt;&lt;p style=&quot;margin: 0px; margin-left: 8px;&quot;&gt;Simulation&lt;/p&gt;" style="verticalAlign=middle;align=center;overflow=fill;fontSize=12;fontFamily=Helvetica;html=1;rounded=1;fontStyle=1;strokeWidth=3;fillColor=#f8cecc;strokeColor=#b85450;" parent="1" vertex="1">
          <mxGeometry x="710" y="329" width="110" height="50" as="geometry" />
        </mxCell>
        <mxCell id="t6xll0wlhaVS0jq_x6gm-111" style="edgeStyle=orthogonalEdgeStyle;rounded=0;orthogonalLoop=1;jettySize=auto;html=1;exitX=0.5;exitY=1;exitDx=0;exitDy=0;" parent="1" source="t6xll0wlhaVS0jq_x6gm-110" target="t6xll0wlhaVS0jq_x6gm-110" edge="1">
          <mxGeometry relative="1" as="geometry" />
        </mxCell>
        <mxCell id="t6xll0wlhaVS0jq_x6gm-117" style="edgeStyle=orthogonalEdgeStyle;rounded=0;orthogonalLoop=1;jettySize=auto;html=1;exitX=0;exitY=1;exitDx=0;exitDy=0;entryX=1;entryY=1;entryDx=0;entryDy=0;strokeWidth=2;strokeColor=#990000;" parent="1" edge="1">
          <mxGeometry relative="1" as="geometry">
            <mxPoint x="710" y="455" as="sourcePoint" />
            <mxPoint x="630" y="438" as="targetPoint" />
            <Array as="points">
              <mxPoint x="710" y="458" />
              <mxPoint x="630" y="458" />
            </Array>
          </mxGeometry>
        </mxCell>
        <mxCell id="t6xll0wlhaVS0jq_x6gm-115" value="&lt;p style=&quot;margin: 0px; margin-top: 4px; text-align: center; text-decoration: underline;&quot;&gt;&lt;strong&gt;&lt;strong&gt;Step&lt;/strong&gt;&amp;nbsp;7&lt;br&gt;&lt;/strong&gt;&lt;/p&gt;&lt;hr&gt;&lt;p style=&quot;margin: 0px; margin-left: 8px;&quot;&gt;Analyse&lt;/p&gt;" style="verticalAlign=middle;align=center;overflow=fill;fontSize=12;fontFamily=Helvetica;html=1;rounded=1;fontStyle=1;strokeWidth=3;fillColor=#e1d5e7;strokeColor=#9673a6;" parent="1" vertex="1">
          <mxGeometry x="710" y="408" width="110" height="50" as="geometry" />
        </mxCell>
        <mxCell id="t6xll0wlhaVS0jq_x6gm-118" value="Network&#xa;Configuration" style="text;spacingTop=-5;align=center" parent="1" vertex="1">
          <mxGeometry x="658" y="308.0000000000002" width="30" height="20" as="geometry" />
        </mxCell>
        <mxCell id="t6xll0wlhaVS0jq_x6gm-119" value="Results" style="text;spacingTop=-5;align=center" parent="1" vertex="1">
          <mxGeometry x="653" y="363.0000000000002" width="30" height="20" as="geometry" />
        </mxCell>
        <mxCell id="t6xll0wlhaVS0jq_x6gm-120" value="Simulation&#xa;Results" style="text;spacingTop=-5;align=center" parent="1" vertex="1">
          <mxGeometry x="654" y="418.0000000000002" width="30" height="20" as="geometry" />
        </mxCell>
        <mxCell id="t6xll0wlhaVS0jq_x6gm-121" value="Results" style="text;spacingTop=-5;align=center" parent="1" vertex="1">
          <mxGeometry x="655" y="457.0000000000002" width="30" height="20" as="geometry" />
        </mxCell>
        <mxCell id="0xibBM71C3-ngfZajD-j-107" value="" style="rounded=1;whiteSpace=wrap;html=1;glass=0;fillOpacity=0;strokeOpacity=100;align=left;noLabel=0;fixDash=1;container=0;dropTarget=0;recursiveResize=1;editable=1;movable=1;resizable=1;rotatable=1;deletable=1;locked=0;connectable=1;fillColor=none;dashed=1;dashPattern=8 8;" parent="1" vertex="1">
          <mxGeometry x="150" y="30" width="440" height="323" as="geometry" />
        </mxCell>
        <mxCell id="0xibBM71C3-ngfZajD-j-108" value="" style="rounded=1;whiteSpace=wrap;html=1;glass=0;fillOpacity=0;strokeOpacity=100;align=left;noLabel=0;fixDash=1;container=0;dropTarget=0;recursiveResize=1;editable=1;movable=1;resizable=1;rotatable=1;deletable=1;locked=0;connectable=1;fillColor=none;dashed=1;dashPattern=8 8;" parent="1" vertex="1">
          <mxGeometry x="1" y="447" width="630" height="143" as="geometry" />
        </mxCell>
        <mxCell id="xCV3nGg4gJkMnK7BZyAZ-104" style="edgeStyle=orthogonalEdgeStyle;rounded=0;orthogonalLoop=1;jettySize=auto;html=1;strokeWidth=2;strokeColor=#990000;" edge="1" parent="1" source="QtLiS_kp1Oo6397CYs3Z-97">
          <mxGeometry relative="1" as="geometry">
            <mxPoint x="315" y="260" as="targetPoint" />
          </mxGeometry>
        </mxCell>
        <mxCell id="QtLiS_kp1Oo6397CYs3Z-97" value="&lt;p style=&quot;margin: 0px; margin-top: 4px; text-align: center; text-decoration: underline;&quot;&gt;&lt;strong&gt;Step 1&lt;/strong&gt;&lt;/p&gt;&lt;font color=&quot;#ff0000&quot;&gt;(SKIP the files that you want to use &lt;br&gt;the default .ini files in the simulation)&lt;/font&gt;&lt;hr&gt;&lt;p&gt;&lt;/p&gt;&lt;p style=&quot;text-align: left; margin: 0px 0px 0px 8px; line-height: 0%;&quot;&gt;&lt;br&gt;&lt;/p&gt;&lt;p style=&quot;text-align: left; margin: 0px 0px 0px 8px; line-height: 0%;&quot;&gt;&amp;nbsp; Following files can be created:&lt;/p&gt;&lt;p style=&quot;margin: 0px 0px 0px 8px; line-height: 0%;&quot;&gt;&lt;/p&gt;&lt;ul style=&quot;line-height: 100%;&quot;&gt;&lt;li style=&quot;text-align: left;&quot;&gt;simulation.local.ini&lt;/li&gt;&lt;li style=&quot;border-color: var(--border-color); text-align: left;&quot;&gt;lithium_battery_setup.&amp;nbsp;local.ini&lt;/li&gt;&lt;li style=&quot;text-align: left;&quot;&gt;bss_battery_pack_setup.&amp;nbsp;local.ini&lt;/li&gt;&lt;li style=&quot;text-align: left;&quot;&gt;electric_vehicle_battery_setup.&amp;nbsp;local.ini&lt;br&gt;&lt;/li&gt;&lt;/ul&gt;" style="verticalAlign=middle;align=center;overflow=fill;fontSize=12;fontFamily=Helvetica;html=1;rounded=1;fontStyle=1;strokeWidth=3;fillColor=#dae8fc;strokeColor=#6c8ebf;" parent="1" vertex="1">
          <mxGeometry x="160.5" y="90" width="309" height="130" as="geometry" />
        </mxCell>
        <mxCell id="0xibBM71C3-ngfZajD-j-111" value="" style="rounded=1;whiteSpace=wrap;html=1;glass=0;fillOpacity=0;strokeOpacity=100;align=left;noLabel=0;fixDash=1;container=0;dropTarget=0;recursiveResize=1;editable=1;movable=1;resizable=1;rotatable=1;deletable=1;locked=0;connectable=1;fillColor=none;dashed=1;dashPattern=8 8;" parent="1" vertex="1">
          <mxGeometry x="633" y="308" width="196" height="78" as="geometry" />
        </mxCell>
        <mxCell id="0xibBM71C3-ngfZajD-j-112" value="" style="rounded=1;whiteSpace=wrap;html=1;glass=0;fillOpacity=0;strokeOpacity=100;align=left;noLabel=0;fixDash=1;container=0;dropTarget=0;recursiveResize=1;editable=1;movable=1;resizable=1;rotatable=1;deletable=1;locked=0;connectable=1;fillColor=none;dashed=1;dashPattern=8 8;" parent="1" vertex="1">
          <mxGeometry x="634" y="399" width="194" height="76" as="geometry" />
        </mxCell>
        <mxCell id="0xibBM71C3-ngfZajD-j-102" value="Settings" style="text;spacingTop=-5;align=center" parent="1" vertex="1">
          <mxGeometry x="271" y="70" width="30" height="20" as="geometry" />
        </mxCell>
        <mxCell id="xCV3nGg4gJkMnK7BZyAZ-99" style="edgeStyle=orthogonalEdgeStyle;rounded=0;orthogonalLoop=1;jettySize=auto;html=1;entryX=0;entryY=0.25;entryDx=0;entryDy=0;strokeWidth=2;strokeColor=#990000;" edge="1" parent="1" target="4">
          <mxGeometry relative="1" as="geometry">
            <mxPoint x="410" y="281" as="sourcePoint" />
          </mxGeometry>
        </mxCell>
      </root>
    </mxGraphModel>
  </diagram>
</mxfile>
